10001|Senior Engineer|1986-06-26|9999-01-01
10002|Staff|1996-08-03|9999-01-01
10003|Senior Engineer|1995-12-03|9999-01-01
10004|Engineer|1986-12-01|1995-12-01
10004|Senior Engineer|1995-12-01|9999-01-01
10005|Senior Staff|1996-09-12|9999-01-01
10005|Staff|1989-09-12|1996-09-12
10006|Senior Engineer|1990-08-05|9999-01-01
10007|Senior Staff|1996-02-11|9999-01-01
10007|Staff|1989-02-10|1996-02-11
10008|Assistant Engineer|1998-03-11|2000-07-31
10009|Assistant Engineer|1985-02-18|1990-02-18
10009|Engineer|1990-02-18|1995-02-18
10009|Senior Engineer|1995-02-18|9999-01-01
10010|Engineer|1996-11-24|9999-01-01
10011|Staff|1990-01-22|1996-11-09
10012|Engineer|1992-12-18|2000-12-18
10012|Senior Engineer|2000-12-18|9999-01-01
10013|Senior Staff|1985-10-20|9999-01-01
10014|Engineer|1993-12-29|9999-01-01
10015|Senior Staff|1992-09-19|1993-08-22
10016|Staff|1998-02-11|9999-01-01
10017|Senior Staff|2000-08-03|9999-01-01
10017|Staff|1993-08-03|2000-08-03
10018|Engineer|1987-04-03|1995-04-03
10018|Senior Engineer|1995-04-03|9999-01-01
10019|Staff|1999-04-30|9999-01-01
10020|Engineer|1997-12-30|9999-01-01
10021|Technique Leader|1988-02-10|2002-07-15
10022|Engineer|1999-09-03|9999-01-01
10023|Engineer|1999-09-27|9999-01-01
10024|Assistant Engineer|1998-06-14|9999-01-01
10025|Technique Leader|1987-08-17|1997-10-15
10026|Engineer|1995-03-20|2001-03-19
10026|Senior Engineer|2001-03-19|9999-01-01
10027|Engineer|1995-04-02|2001-04-01
10027|Senior Engineer|2001-04-01|9999-01-01
10028|Engineer|1991-10-22|1998-04-06
10029|Engineer|1991-09-18|2000-09-17
10029|Senior Engineer|2000-09-17|9999-01-01
10030|Engineer|1994-02-17|2001-02-17
10030|Senior Engineer|2001-02-17|9999-01-01
10031|Engineer|1991-09-01|1998-09-01
10031|Senior Engineer|1998-09-01|9999-01-01
10032|Engineer|1990-06-20|1995-06-20
10032|Senior Engineer|1995-06-20|9999-01-01
10033|Technique Leader|1987-03-18|1993-03-24
10034|Staff|1995-04-12|1999-10-31
10035|Engineer|1988-09-05|1996-09-05
10035|Senior Engineer|1996-09-05|9999-01-01
10036|Senior Staff|1992-04-28|9999-01-01
10037|Engineer|1990-12-05|1995-12-05
10037|Senior Engineer|1995-12-05|9999-01-01
10038|Senior Staff|1996-09-20|9999-01-01
10038|Staff|1989-09-20|1996-09-20
10039|Senior Staff|1997-01-18|9999-01-01
10039|Staff|1988-01-19|1997-01-18
10040|Engineer|1993-02-14|1999-02-14
10040|Senior Engineer|1999-02-14|9999-01-01
10041|Senior Staff|1998-11-12|9999-01-01
10041|Staff|1989-11-12|1998-11-12
10042|Senior Staff|2000-03-21|2000-08-10
10042|Staff|1993-03-21|2000-03-21
10043|Engineer|1990-10-20|1997-10-20
10043|Senior Engineer|1997-10-20|9999-01-01
10044|Technique Leader|1994-05-21|9999-01-01
10045|Engineer|1996-11-16|9999-01-01
10046|Senior Staff|2000-06-20|9999-01-01
10046|Staff|1992-06-20|2000-06-20
10047|Engineer|1989-03-31|1998-03-31
10047|Senior Engineer|1998-03-31|9999-01-01
10048|Engineer|1985-02-24|1987-01-27
10049|Senior Staff|2000-05-04|9999-01-01
10049|Staff|1992-05-04|2000-05-04
10050|Senior Staff|1999-12-25|9999-01-01
10050|Staff|1990-12-25|1999-12-25
10051|Engineer|1992-10-15|1998-10-15
10051|Senior Engineer|1998-10-15|9999-01-01
10052|Senior Staff|2002-01-31|9999-01-01
10052|Staff|1997-01-31|2002-01-31
10053|Senior Staff|1994-11-13|9999-01-01
10054|Senior Staff|2000-07-28|9999-01-01
10054|Staff|1995-07-29|2000-07-28
10055|Staff|1992-04-27|1995-07-22
10056|Engineer|1990-02-01|1999-02-01
10056|Senior Engineer|1999-02-01|9999-01-01
10057|Engineer|1992-01-15|2000-01-15
10057|Senior Engineer|2000-01-15|9999-01-01
10058|Senior Staff|1988-04-25|9999-01-01
10059|Senior Staff|1991-06-26|9999-01-01
10060|Senior Staff|1996-05-28|9999-01-01
10060|Staff|1989-05-28|1996-05-28
10061|Senior Staff|1989-12-02|9999-01-01
10062|Engineer|1991-08-30|1999-08-30
10062|Senior Engineer|1999-08-30|9999-01-01
10063|Senior Engineer|1989-04-08|9999-01-01
10064|Staff|1985-11-20|1992-03-02
10065|Engineer|1998-05-24|9999-01-01
10066|Assistant Engineer|1986-02-26|1992-02-26
10066|Engineer|1992-02-26|1998-02-25
10066|Senior Engineer|1998-02-25|9999-01-01
10067|Engineer|1987-03-04|1996-03-03
10067|Senior Engineer|1996-03-03|9999-01-01
10068|Senior Staff|1996-08-06|9999-01-01
10068|Staff|1987-08-07|1996-08-06
10069|Technique Leader|1992-06-14|9999-01-01
10070|Technique Leader|1985-10-14|9999-01-01
10071|Staff|1995-08-05|9999-01-01
10072|Engineer|1989-05-21|1995-05-21
10072|Senior Engineer|1995-05-21|9999-01-01
10073|Engineer|1998-02-02|1998-02-22
10074|Technique Leader|1990-08-13|9999-01-01
10075|Senior Engineer|1988-05-17|2001-01-15
10076|Senior Engineer|1996-07-15|9999-01-01
10077|Staff|1994-12-23|9999-01-01
10078|Engineer|1994-09-29|9999-01-01
10079|Technique Leader|1995-12-13|9999-01-01
10080|Senior Staff|2001-09-28|9999-01-01
10080|Staff|1994-09-28|2001-09-28
10081|Engineer|1986-10-30|1991-10-30
10081|Senior Engineer|1991-10-30|9999-01-01
10082|Staff|1990-01-03|1990-01-15
10083|Engineer|1987-03-31|1994-03-31
10083|Senior Engineer|1994-03-31|9999-01-01
10084|Engineer|1995-12-15|2001-12-14
10084|Senior Engineer|2001-12-14|9999-01-01
10085|Senior Engineer|1994-04-09|9999-01-01
10086|Senior Staff|1999-02-19|9999-01-01
10086|Staff|1992-02-19|1999-02-19
10087|Staff|1997-05-08|2001-01-09
10088|Senior Staff|1993-09-02|9999-01-01
10088|Staff|1988-09-02|1993-09-02
10089|Senior Staff|1996-01-11|9999-01-01
10089|Staff|1989-01-10|1996-01-11
10090|Senior Engineer|1986-03-14|1999-05-07
10091|Engineer|1992-11-18|2001-11-18
10091|Senior Engineer|2001-11-18|9999-01-01
10092|Engineer|1996-04-22|9999-01-01
10093|Staff|1997-06-08|9999-01-01
10094|Senior Staff|1987-04-18|1997-11-08
10095|Senior Staff|2000-03-09|9999-01-01
10095|Staff|1994-03-10|2000-03-09
10096|Engineer|1999-01-23|9999-01-01
10097|Senior Staff|1996-09-14|9999-01-01
10097|Staff|1990-09-15|1996-09-14
10098|Engineer|1985-05-13|1992-05-13
10098|Senior Engineer|1992-05-13|1992-12-11
10099|Senior Staff|1995-10-19|9999-01-01
10099|Staff|1988-10-18|1995-10-19
10100|Senior Staff|1994-09-21|9999-01-01
10100|Staff|1987-09-21|1994-09-21
10101|Staff|1998-10-14|2000-09-23
10102|Assistant Engineer|1995-01-02|2002-01-02
10102|Engineer|2002-01-02|9999-01-01
10103|Engineer|1998-01-12|9999-01-01
10104|Senior Staff|1987-04-16|9999-01-01
10105|Staff|1999-05-17|2001-06-11
10106|Engineer|1991-10-27|1997-10-26
10106|Senior Engineer|1997-10-26|9999-01-01
10107|Senior Staff|1999-03-30|9999-01-01
10108|Staff|1999-03-20|2001-10-20
10109|Engineer|1993-06-16|2001-06-16
10109|Senior Engineer|2001-06-16|9999-01-01
10110|Senior Staff|1992-08-21|9999-01-01
10110|Staff|1986-08-22|1992-08-21
10111|Engineer|1988-12-19|1996-12-19
10111|Senior Engineer|1996-12-19|9999-01-01
10112|Staff|1998-05-01|9999-01-01
10113|Engineer|1998-09-14|9999-01-01
10114|Senior Staff|1999-07-18|9999-01-01
10114|Staff|1992-07-17|1999-07-18
10115|Staff|1988-03-03|1992-05-24
10116|Senior Engineer|1994-02-27|1998-11-01
10117|Senior Engineer|1992-03-19|9999-01-01
10118|Senior Engineer|1992-02-02|9999-01-01
10119|Engineer|1993-12-09|1997-10-30
10120|Engineer|1996-07-06|9999-01-01
10121|Engineer|1989-05-03|1996-05-03
10121|Senior Engineer|1996-05-03|9999-01-01
10122|Technique Leader|1998-08-06|9999-01-01
10123|Assistant Engineer|1993-01-15|1999-01-15
10123|Engineer|1999-01-15|9999-01-01
10124|Engineer|1991-09-05|1998-09-05
10124|Senior Engineer|1998-09-05|9999-01-01
10125|Staff|1990-10-26|1996-03-25
10126|Senior Staff|1991-09-08|9999-01-01
10126|Staff|1985-09-08|1991-09-08
10127|Senior Engineer|1991-05-17|9999-01-01
10128|Senior Staff|1995-06-07|9999-01-01
10128|Staff|1988-06-06|1995-06-07
10129|Technique Leader|1996-01-16|9999-01-01
10130|Senior Engineer|1988-06-21|9999-01-01
10131|Engineer|1999-09-17|1999-12-06
10132|Staff|1997-06-18|9999-01-01
10133|Engineer|1985-12-15|1991-12-15
10133|Senior Engineer|1991-12-15|9999-01-01
10134|Engineer|1987-12-12|1994-12-12
10134|Senior Engineer|1994-12-12|9999-01-01
10135|Assistant Engineer|1990-01-04|1999-01-04
10135|Engineer|1999-01-04|9999-01-01
10136|Senior Staff|1997-06-13|1999-09-20
10136|Staff|1988-06-13|1997-06-13
10137|Senior Staff|1994-02-18|9999-01-01
10137|Staff|1985-02-18|1994-02-18
10138|Engineer|1992-03-03|2001-03-03
10138|Senior Engineer|2001-03-03|9999-01-01
10139|Engineer|1998-03-15|9999-01-01
10140|Senior Staff|1998-03-14|9999-01-01
10140|Staff|1991-03-14|1998-03-14
10141|Senior Staff|1998-07-23|9999-01-01
10142|Engineer|1993-10-28|2001-10-28
10142|Senior Engineer|2001-10-28|9999-01-01
10143|Engineer|1988-09-30|1993-09-30
10143|Senior Engineer|1993-09-30|9999-01-01
10144|Senior Staff|1992-10-14|1993-08-10
10144|Staff|1985-10-14|1992-10-14
10145|Engineer|1999-11-03|9999-01-01
10146|Staff|1988-06-28|1990-09-07
10147|Senior Staff|1995-12-18|9999-01-01
10147|Staff|1987-12-18|1995-12-18
10148|Staff|1996-07-15|9999-01-01
10149|Staff|1994-01-28|1996-08-27
10150|Engineer|1986-11-16|1995-11-16
10150|Senior Engineer|1995-11-16|9999-01-01
10151|Senior Staff|1997-12-12|9999-01-01
10151|Staff|1992-12-12|1997-12-12
10152|Engineer|1986-01-27|1987-08-03
10153|Assistant Engineer|2000-01-08|9999-01-01
10154|Staff|1996-10-23|9999-01-01
10155|Senior Staff|1996-01-05|9999-01-01
10155|Staff|1990-01-05|1996-01-05
10156|Engineer|1993-05-14|2001-05-14
10156|Senior Engineer|2001-05-14|9999-01-01
10157|Senior Engineer|1997-12-10|9999-01-01
10158|Engineer|1987-06-04|1996-06-03
10158|Senior Engineer|1996-06-03|9999-01-01
10159|Senior Engineer|1996-06-12|9999-01-01
10160|Senior Staff|2000-12-06|9999-01-01
10160|Staff|1993-12-06|2000-12-06
10161|Engineer|1991-06-09|1994-01-05
10162|Engineer|1998-05-27|9999-01-01
10163|Senior Staff|1992-02-02|9999-01-01
10164|Engineer|1990-10-19|1999-10-19
10164|Senior Engineer|1999-10-19|9999-01-01
10165|Senior Staff|1988-05-17|9999-01-01
10166|Engineer|1996-09-02|9999-01-01
10167|Engineer|1992-04-04|2001-04-04
10167|Senior Engineer|2001-04-04|9999-01-01
10168|Senior Staff|1995-12-06|9999-01-01
10168|Staff|1986-12-06|1995-12-06
10169|Engineer|1998-06-28|9999-01-01
10170|Engineer|1986-01-02|1989-02-06
10171|Technique Leader|1996-08-05|9999-01-01
10172|Engineer|1998-02-04|9999-01-01
10173|Senior Staff|1999-03-22|9999-01-01
10173|Staff|1992-03-21|1999-03-22
10174|Engineer|1987-06-01|1995-06-01
10174|Senior Engineer|1995-06-01|9999-01-01
10175|Staff|1988-09-24|1995-05-24
10176|Senior Staff|1999-12-22|9999-01-01
10176|Staff|1994-12-22|1999-12-22
10177|Staff|1993-02-06|1994-03-17
10178|Staff|1994-03-21|9999-01-01
10179|Engineer|2000-01-25|9999-01-01
10180|Senior Staff|2002-07-01|9999-01-01
10180|Staff|1994-07-01|2002-07-01
10181|Senior Engineer|1988-06-22|9999-01-01
10182|Engineer|1990-09-02|1995-09-02
10182|Senior Engineer|1995-09-02|9999-01-01
10183|Staff|1996-08-11|9999-01-01
10184|Staff|1997-12-26|9999-01-01
10185|Senior Staff|1992-02-29|9999-01-01
10185|Staff|1986-03-01|1992-02-29
10186|Staff|1996-12-25|1997-08-16
10187|Senior Staff|2000-05-31|9999-01-01
10187|Staff|1991-06-01|2000-05-31
10188|Senior Engineer|1987-08-27|9999-01-01
10189|Engineer|1992-09-13|1993-06-29
10190|Engineer|1986-06-23|1994-06-23
10190|Senior Engineer|1994-06-23|9999-01-01
10191|Senior Engineer|1986-04-10|9999-01-01
10192|Engineer|1988-06-13|1993-06-13
10192|Senior Engineer|1993-06-13|9999-01-01
10193|Engineer|1996-09-21|9999-01-01
10194|Senior Staff|2002-02-14|9999-01-01
10194|Staff|1997-02-14|2002-02-14
10195|Engineer|1985-02-15|1991-02-15
10195|Senior Engineer|1991-02-15|2001-04-14
10196|Staff|1999-01-31|9999-01-01
10197|Engineer|1994-06-28|2001-06-28
10197|Senior Engineer|2001-06-28|9999-01-01
10198|Engineer|1985-08-31|1993-08-31
10198|Senior Engineer|1993-08-31|9999-01-01
10199|Staff|1998-02-07|9999-01-01
10200|Engineer|1994-02-17|2000-02-17
10200|Senior Engineer|2000-02-17|9999-01-01
10201|Engineer|1992-11-10|1998-11-10
10201|Senior Engineer|1998-11-10|9999-01-01
10202|Engineer|1991-10-06|2000-10-05
10202|Senior Engineer|2000-10-05|9999-01-01
10203|Senior Staff|1995-04-06|9999-01-01
10203|Staff|1989-04-06|1995-04-06
10204|Engineer|1998-12-18|1999-03-08
10205|Senior Engineer|1993-08-23|9999-01-01
10206|Technique Leader|1988-04-19|9999-01-01
10207|Engineer|1992-10-11|1997-10-11
10207|Senior Engineer|1997-10-11|9999-01-01
10208|Staff|1995-02-05|1999-05-15
10209|Senior Staff|1997-11-22|9999-01-01
10209|Staff|1991-11-23|1997-11-22
10210|Senior Staff|2002-02-23|9999-01-01
10210|Staff|1996-02-24|2002-02-23
10211|Engineer|1991-11-22|1996-11-21
10211|Senior Engineer|1996-11-21|9999-01-01
10212|Engineer|1996-01-28|2001-01-27
10212|Senior Engineer|2001-01-27|9999-01-01
10213|Staff|1994-10-06|9999-01-01
10214|Senior Staff|1988-02-29|9999-01-01
10215|Senior Staff|1991-11-23|9999-01-01
10216|Senior Staff|1993-10-29|9999-01-01
10216|Staff|1987-10-30|1993-10-29
10217|Technique Leader|1986-05-12|1993-08-05
10218|Senior Engineer|1997-01-31|9999-01-01
10219|Senior Staff|1993-03-31|9999-01-01
10220|Staff|1997-09-16|9999-01-01
10221|Engineer|1988-06-08|1997-06-08
10221|Senior Engineer|1997-06-08|2000-10-04
10222|Assistant Engineer|1986-06-08|1995-06-08
10222|Engineer|1995-06-08|9999-01-01
10223|Engineer|1998-04-01|9999-01-01
10224|Engineer|1988-01-09|1996-01-09
10224|Senior Engineer|1996-01-09|9999-01-01
10225|Staff|1995-12-14|9999-01-01
10226|Staff|1996-01-29|9999-01-01
10227|Technique Leader|1994-11-01|9999-01-01
10228|Senior Staff|1998-12-22|9999-01-01
10228|Staff|1992-12-22|1998-12-22
10229|Engineer|1996-02-20|2000-06-30
10230|Senior Staff|2002-06-16|9999-01-01
10230|Staff|1996-06-16|2002-06-16
10231|Staff|1998-09-09|9999-01-01
10232|Senior Staff|1998-06-04|9999-01-01
10232|Staff|1992-06-04|1998-06-04
10233|Senior Staff|2000-04-28|9999-01-01
10233|Staff|1994-04-29|2000-04-28
10234|Senior Staff|1995-11-19|1999-08-06
10234|Staff|1990-11-19|1995-11-19
10235|Senior Engineer|1995-04-06|9999-01-01
10236|Staff|1996-08-30|9999-01-01
10237|Senior Staff|1997-08-11|2000-02-21
10237|Staff|1989-08-11|1997-08-11
10238|Engineer|1995-03-31|9999-01-01
10239|Staff|1996-05-04|9999-01-01
10240|Engineer|1998-10-06|9999-01-01
10241|Senior Staff|1995-06-13|9999-01-01
10241|Staff|1988-06-12|1995-06-13
10242|Engineer|1988-01-18|1995-01-18
10242|Senior Engineer|1995-01-18|9999-01-01
10243|Senior Staff|1986-06-07|9999-01-01
10244|Engineer|1999-09-16|9999-01-01
10245|Staff|1994-04-21|1995-02-20
10246|Senior Engineer|1991-02-01|9999-01-01
10247|Engineer|1992-08-14|1998-08-14
10247|Senior Engineer|1998-08-14|9999-01-01
10248|Senior Staff|1997-08-12|9999-01-01
10248|Staff|1991-08-13|1997-08-12
10249|Engineer|1991-12-08|2000-12-07
10249|Senior Engineer|2000-12-07|9999-01-01
10250|Engineer|1992-08-30|2001-08-30
10250|Senior Engineer|2001-08-30|9999-01-01
10251|Senior Staff|2001-06-25|9999-01-01
10251|Staff|1992-06-25|2001-06-25
10252|Engineer|1990-11-08|1998-11-08
10252|Senior Engineer|1998-11-08|9999-01-01
10253|Senior Staff|1993-02-21|1994-03-20
10253|Staff|1985-02-21|1993-02-21
10254|Senior Staff|1998-06-14|9999-01-01
10254|Staff|1990-06-14|1998-06-14
10255|Engineer|1993-05-12|1999-05-12
10255|Senior Engineer|1999-05-12|1999-11-14
10256|Senior Staff|1990-10-12|9999-01-01
10256|Staff|1985-10-12|1990-10-12
10257|Technique Leader|1997-07-16|9999-01-01
10258|Assistant Engineer|1985-05-17|1991-05-17
10258|Engineer|1991-05-17|1997-05-16
10258|Senior Engineer|1997-05-16|9999-01-01
10259|Senior Staff|1993-07-24|1999-01-06
10259|Staff|1987-07-25|1993-07-24
10260|Engineer|1993-02-01|2002-02-01
10260|Senior Engineer|2002-02-01|9999-01-01
10261|Senior Engineer|1996-09-11|1999-02-23
10262|Staff|1996-01-22|9999-01-01
10263|Staff|1996-12-21|9999-01-01
10264|Engineer|1997-07-16|9999-01-01
10265|Senior Engineer|1997-09-12|9999-01-01
10266|Senior Engineer|1990-05-25|9999-01-01
10267|Engineer|1997-04-26|9999-01-01
10268|Engineer|1986-12-17|1990-08-17
10269|Engineer|1988-07-24|1996-07-24
10269|Senior Engineer|1996-07-24|9999-01-01
10270|Senior Staff|1999-09-26|9999-01-01
10270|Staff|1991-09-26|1999-09-26
10271|Engineer|1986-05-23|1992-05-22
10271|Senior Engineer|1992-05-22|9999-01-01
10272|Staff|1997-10-23|9999-01-01
10273|Senior Staff|1991-11-06|9999-01-01
10273|Staff|1985-11-06|1991-11-06
10274|Engineer|1997-02-02|9999-01-01
10275|Senior Engineer|1987-09-08|9999-01-01
10276|Engineer|1986-10-19|1993-10-19
10276|Senior Engineer|1993-10-19|2000-02-04
10277|Senior Staff|1991-06-16|9999-01-01
10277|Staff|1985-06-16|1991-06-16
10278|Engineer|1993-07-02|1997-02-14
10279|Engineer|1995-04-26|9999-01-01
10280|Staff|1995-01-27|9999-01-01
10281|Engineer|1994-12-03|2000-12-02
10281|Senior Engineer|2000-12-02|9999-01-01
10282|Assistant Engineer|1996-05-02|2001-05-02
10282|Engineer|2001-05-02|9999-01-01
10283|Engineer|1988-05-25|1995-05-26
10283|Senior Engineer|1995-05-26|9999-01-01
10284|Engineer|1999-07-06|9999-01-01
10285|Staff|1995-05-25|9999-01-01
10286|Staff|1994-12-24|1999-01-24
10287|Senior Staff|2000-12-28|9999-01-01
10287|Staff|1992-12-28|2000-12-28
10288|Technique Leader|1994-08-29|9999-01-01
10289|Technique Leader|1993-03-12|2002-01-31
10290|Engineer|1991-09-18|1997-09-17
10290|Senior Engineer|1997-09-17|9999-01-01
10291|Senior Staff|1994-03-30|9999-01-01
10291|Staff|1987-03-30|1994-03-30
10292|Senior Staff|1997-06-05|9999-01-01
10292|Staff|1989-06-05|1997-06-05
10293|Engineer|1992-12-12|2001-12-12
10293|Senior Engineer|2001-12-12|9999-01-01
10294|Senior Engineer|1999-01-30|1999-05-04
10295|Senior Staff|2000-06-18|9999-01-01
10295|Staff|1995-06-19|2000-06-18
10296|Senior Staff|1994-09-16|9999-01-01
10296|Staff|1989-09-16|1994-09-16
10297|Engineer|1986-05-28|1995-05-28
10297|Senior Engineer|1995-05-28|9999-01-01
10298|Staff|1999-04-27|9999-01-01
10299|Senior Staff|1997-01-10|9999-01-01
10299|Staff|1990-01-10|1997-01-10
10300|Engineer|1991-05-17|1996-05-16
10300|Senior Engineer|1996-05-16|9999-01-01
10301|Senior Staff|1995-05-24|9999-01-01
10301|Staff|1988-05-23|1995-05-24
10302|Senior Staff|1994-07-22|1999-11-09
10302|Staff|1986-07-22|1994-07-22
10303|Senior Engineer|1990-02-05|2000-11-15
10304|Senior Staff|1997-11-16|2002-05-08
10304|Staff|1992-11-16|1997-11-16
10305|Engineer|1988-10-31|1992-06-02
10306|Staff|1993-09-06|9999-01-01
10307|Engineer|1999-10-16|9999-01-01
10308|Senior Staff|2001-12-29|9999-01-01
10308|Staff|1992-12-29|2001-12-29
10309|Assistant Engineer|1997-05-02|9999-01-01
10310|Senior Engineer|1990-10-24|2001-07-26
10311|Engineer|1998-11-04|9999-01-01
10312|Senior Engineer|1986-08-28|9999-01-01
10313|Staff|1994-10-10|9999-01-01
10314|Senior Staff|1994-01-16|9999-01-01
10314|Staff|1986-01-16|1994-01-16
10315|Engineer|1987-08-28|1994-08-28
10315|Senior Engineer|1994-08-28|9999-01-01
10316|Engineer|1990-12-18|1991-01-02
10317|Staff|1999-01-24|9999-01-01
10318|Engineer|1987-03-23|1995-03-23
10318|Senior Engineer|1995-03-23|9999-01-01
10319|Senior Staff|1999-06-18|9999-01-01
10319|Staff|1994-06-18|1999-06-18
10320|Senior Staff|1996-11-03|2001-12-23
10320|Staff|1988-11-03|1996-11-03
10321|Staff|1995-07-24|1999-08-14
10322|Engineer|1990-01-29|1997-01-29
10322|Senior Engineer|1997-01-29|9999-01-01
10323|Engineer|1991-06-06|2000-06-05
10323|Senior Engineer|2000-06-05|9999-01-01
10324|Engineer|1999-07-19|9999-01-01
10325|Senior Staff|1990-09-20|9999-01-01
10326|Staff|1998-09-02|9999-01-01
10327|Engineer|1987-09-18|1993-05-22
10328|Engineer|1998-07-17|9999-01-01
10329|Technique Leader|1986-01-20|9999-01-01
10330|Staff|1993-10-08|9999-01-01
10331|Senior Staff|1991-10-29|9999-01-01
10331|Staff|1986-10-29|1991-10-29
10332|Engineer|1988-10-20|1994-10-20
10332|Senior Engineer|1994-10-20|1997-03-07
10333|Engineer|1993-01-16|1998-01-16
10333|Senior Engineer|1998-01-16|9999-01-01
10334|Staff|1998-02-15|9999-01-01
10335|Senior Staff|1992-04-06|9999-01-01
10336|Staff|1996-09-27|9999-01-01
10337|Assistant Engineer|1998-04-25|9999-01-01
10338|Staff|1999-12-29|9999-01-01
10339|Engineer|1989-11-30|1997-11-30
10339|Senior Engineer|1997-11-30|9999-01-01
10340|Senior Staff|1993-03-30|9999-01-01
10340|Staff|1988-03-30|1993-03-30
10341|Technique Leader|1987-04-29|1998-11-11
10342|Engineer|1987-07-25|1993-07-24
10342|Senior Engineer|1993-07-24|9999-01-01
10343|Senior Engineer|1997-10-03|9999-01-01
10344|Assistant Engineer|1999-04-19|9999-01-01
10345|Engineer|1993-11-08|1998-11-08
10345|Senior Engineer|1998-11-08|9999-01-01
10346|Staff|1992-01-17|1996-04-20
10347|Staff|1998-02-20|9999-01-01
10348|Technique Leader|1995-10-22|9999-01-01
10349|Senior Staff|1997-09-27|9999-01-01
10349|Staff|1991-09-28|1997-09-27
10350|Assistant Engineer|1991-05-11|1997-05-10
10350|Engineer|1997-05-10|1998-01-16
10351|Staff|1995-05-01|9999-01-01
10352|Engineer|1998-12-16|9999-01-01
10353|Senior Staff|1989-08-24|9999-01-01
10354|Senior Staff|1999-03-03|2002-01-01
10355|Staff|1996-01-26|9999-01-01
10356|Senior Staff|1995-06-26|9999-01-01
10357|Engineer|1994-04-04|1999-04-03
10357|Senior Engineer|1999-04-03|9999-01-01
10358|Technique Leader|1991-02-19|9999-01-01
10359|Engineer|1998-07-20|9999-01-01
10360|Staff|1996-09-04|9999-01-01
10361|Senior Staff|1991-10-23|9999-01-01
10361|Staff|1986-10-23|1991-10-23
10362|Senior Staff|1990-11-02|1997-07-16
10363|Assistant Engineer|1985-09-11|1993-02-12
10364|Senior Engineer|1985-11-14|9999-01-01
10365|Staff|1987-10-22|1992-04-04
10366|Engineer|1997-08-15|9999-01-01
10367|Senior Staff|2000-06-23|9999-01-01
10367|Staff|1991-06-24|2000-06-23
10368|Assistant Engineer|1996-05-16|9999-01-01
10369|Staff|1994-09-05|9999-01-01
10370|Senior Staff|1998-04-18|9999-01-01
10370|Staff|1992-04-18|1998-04-18
10371|Assistant Engineer|1989-11-28|1998-11-28
10371|Engineer|1998-11-28|9999-01-01
10372|Technique Leader|1985-07-30|9999-01-01
10373|Engineer|1997-04-26|9999-01-01
10374|Staff|1993-12-08|1996-03-29
10375|Senior Staff|2001-05-29|9999-01-01
10375|Staff|1994-05-29|2001-05-29
10376|Technique Leader|1990-12-08|9999-01-01
10377|Senior Engineer|1996-08-24|9999-01-01
10378|Senior Staff|1992-08-31|9999-01-01
10379|Engineer|1996-07-15|9999-01-01
10380|Senior Staff|1994-03-19|9999-01-01
10380|Staff|1985-03-19|1994-03-19
10381|Assistant Engineer|1991-12-04|2000-12-03
10381|Engineer|2000-12-03|9999-01-01
10382|Engineer|1998-07-01|2000-10-27
10383|Engineer|1991-06-19|1997-06-18
10383|Senior Engineer|1997-06-18|9999-01-01
10384|Senior Staff|1991-01-16|9999-01-01
10384|Staff|1986-01-16|1991-01-16
10385|Engineer|1992-12-20|1998-01-23
10386|Engineer|1985-08-02|1994-08-02
10386|Senior Engineer|1994-08-02|9999-01-01
10387|Senior Staff|1999-01-07|9999-01-01
10387|Staff|1994-01-07|1999-01-07
10388|Staff|1999-05-28|9999-01-01
10389|Technique Leader|1999-05-13|9999-01-01
10390|Technique Leader|1989-05-17|9999-01-01
10391|Assistant Engineer|1993-01-28|2001-01-28
10391|Engineer|2001-01-28|9999-01-01
10392|Engineer|1992-03-01|1998-03-01
10392|Senior Engineer|1998-03-01|9999-01-01
10393|Engineer|1989-06-23|1995-06-23
10393|Senior Engineer|1995-06-23|9999-01-01
10394|Engineer|1991-03-14|1991-08-25
10395|Engineer|1998-08-10|2001-08-13
10396|Senior Engineer|1986-01-11|9999-01-01
10397|Technique Leader|1993-05-21|9999-01-01
10398|Senior Staff|1990-10-12|9999-01-01
10399|Staff|2000-01-26|9999-01-01
10400|Senior Staff|1993-10-17|9999-01-01
10401|Engineer|1999-10-25|2001-04-25
10402|Technique Leader|1987-01-02|9999-01-01
10403|Senior Staff|2000-09-12|2001-06-15
10403|Staff|1991-09-13|2000-09-12
10404|Engineer|1988-08-28|1996-08-28
10404|Senior Engineer|1996-08-28|9999-01-01
10405|Assistant Engineer|1998-09-26|2000-12-05
10406|Engineer|1996-01-26|9999-01-01
10407|Senior Staff|1999-10-30|9999-01-01
10408|Staff|1998-10-07|9999-01-01
10409|Engineer|1997-09-26|9999-01-01
10410|Staff|1993-10-16|1996-07-21
10411|Senior Staff|1994-09-02|9999-01-01
10411|Staff|1989-09-02|1994-09-02
10412|Engineer|1991-11-21|1996-11-20
10412|Senior Engineer|1996-11-20|9999-01-01
10413|Senior Staff|1997-12-26|9999-01-01
10413|Staff|1991-12-27|1997-12-26
10414|Senior Engineer|1990-05-30|1994-12-02
10415|Senior Engineer|1993-10-25|9999-01-01
10416|Senior Staff|1996-03-24|9999-01-01
10416|Staff|1989-03-24|1996-03-24
10417|Staff|1999-06-27|9999-01-01
10418|Staff|1996-10-04|9999-01-01
10419|Senior Staff|2000-04-25|2002-07-06
10419|Staff|1992-04-25|2000-04-25
10420|Senior Staff|1997-01-16|2000-07-09
10420|Staff|1988-01-17|1997-01-16
10421|Senior Staff|1998-04-07|9999-01-01
10421|Staff|1990-04-07|1998-04-07
10422|Engineer|1995-01-03|9999-01-01
10423|Staff|1999-05-27|9999-01-01
10424|Senior Engineer|1989-08-07|9999-01-01
10425|Engineer|1995-05-07|2001-05-06
10425|Senior Engineer|2001-05-06|2002-05-06
10426|Technique Leader|1985-07-06|9999-01-01
10427|Senior Staff|1999-10-03|9999-01-01
10427|Staff|1994-10-03|1999-10-03
10428|Senior Staff|1999-06-05|9999-01-01
10428|Staff|1992-06-04|1999-06-05
10429|Senior Engineer|1988-09-23|9999-01-01
10430|Senior Engineer|1998-07-05|9999-01-01
10431|Senior Staff|1995-10-08|9999-01-01
10431|Staff|1987-10-08|1995-10-08
10432|Senior Staff|1996-08-12|9999-01-01
10432|Staff|1990-08-13|1996-08-12
10433|Assistant Engineer|1992-11-26|1999-11-27
10433|Engineer|1999-11-27|9999-01-01
10434|Engineer|1995-06-27|2001-06-26
10434|Senior Engineer|2001-06-26|2002-06-22
10435|Engineer|1996-06-08|9999-01-01
10436|Senior Staff|1988-01-30|9999-01-01
10437|Engineer|1996-04-12|9999-01-01
10438|Assistant Engineer|1990-01-19|1997-01-19
10438|Engineer|1997-01-19|9999-01-01
10439|Engineer|1993-05-01|2002-05-01
10439|Senior Engineer|2002-05-01|9999-01-01
10440|Technique Leader|1997-04-04|9999-01-01
10441|Engineer|1988-07-12|1993-07-12
10441|Senior Engineer|1993-07-12|9999-01-01
10442|Senior Staff|1999-02-12|2001-03-13
10442|Staff|1992-02-12|1999-02-12
10443|Senior Engineer|1989-08-01|2002-07-06
10444|Staff|1994-10-23|9999-01-01
10445|Engineer|1987-11-04|1993-11-03
10445|Senior Engineer|1993-11-03|9999-01-01
10446|Engineer|1996-12-25|9999-01-01
10447|Assistant Engineer|1988-12-29|1997-12-29
10447|Engineer|1997-12-29|2000-11-15
10448|Senior Staff|2000-03-12|9999-01-01
10448|Staff|1992-03-12|2000-03-12
10449|Senior Staff|1994-03-28|9999-01-01
10449|Staff|1987-03-28|1994-03-28
10450|Engineer|1997-08-24|9999-01-01
10451|Assistant Engineer|1988-03-12|1993-03-12
10451|Engineer|1993-03-12|1998-03-12
10451|Senior Engineer|1998-03-12|9999-01-01
10452|Engineer|1995-11-12|2000-11-11
10452|Senior Engineer|2000-11-11|2001-10-11
10453|Senior Staff|1993-04-02|9999-01-01
10453|Staff|1985-04-02|1993-04-02
10454|Senior Staff|1989-04-16|9999-01-01
10455|Senior Staff|2002-02-19|9999-01-01
10455|Staff|1995-02-19|2002-02-19
10456|Staff|2000-01-06|9999-01-01
10457|Senior Engineer|1999-10-23|9999-01-01
10458|Senior Staff|2002-07-05|9999-01-01
10458|Staff|1994-07-05|2002-07-05
10459|Staff|1997-06-28|9999-01-01
10460|Engineer|1999-06-30|2001-04-15
10461|Senior Staff|1992-08-02|9999-01-01
10461|Staff|1987-08-03|1992-08-02
10462|Senior Engineer|1996-03-25|9999-01-01
10463|Staff|1994-02-17|9999-01-01
10464|Senior Staff|1999-05-21|9999-01-01
10464|Staff|1991-05-21|1999-05-21
10465|Senior Staff|2001-12-11|9999-01-01
10465|Staff|1994-12-11|2001-12-11
10466|Staff|1997-08-22|2000-08-15
10467|Staff|1992-05-22|1999-11-01
10468|Senior Staff|1998-05-28|9999-01-01
10468|Staff|1991-05-28|1998-05-28
10469|Senior Engineer|1985-06-05|9999-01-01
10470|Engineer|1989-09-19|1994-09-19
10470|Senior Engineer|1994-09-19|9999-01-01
10471|Senior Engineer|1990-11-18|9999-01-01
10472|Staff|1999-12-01|2002-01-02
10473|Engineer|1997-09-23|9999-01-01
10474|Engineer|1987-02-21|1992-02-21
10474|Senior Engineer|1992-02-21|9999-01-01
10475|Engineer|1992-05-13|1994-12-30
10476|Senior Staff|1994-09-20|9999-01-01
10476|Staff|1987-09-20|1994-09-20
10477|Engineer|1997-05-26|2002-05-26
10477|Senior Engineer|2002-05-26|9999-01-01
10478|Senior Staff|1992-06-09|9999-01-01
10479|Senior Engineer|1993-07-24|9999-01-01
10480|Staff|1988-05-18|1989-06-03
10481|Engineer|1989-10-03|1998-10-03
10481|Senior Engineer|1998-10-03|9999-01-01
10482|Engineer|1996-02-26|9999-01-01
10483|Assistant Engineer|1993-11-10|1998-11-10
10483|Engineer|1998-11-10|9999-01-01
10484|Senior Staff|1996-12-20|9999-01-01
10485|Engineer|1996-01-21|9999-01-01
10486|Engineer|1987-10-08|1996-10-07
10486|Senior Engineer|1996-10-07|9999-01-01
10487|Engineer|1992-08-14|2001-08-14
10487|Senior Engineer|2001-08-14|9999-01-01
10488|Engineer|1994-07-09|2002-07-09
10488|Senior Engineer|2002-07-09|9999-01-01
10489|Engineer|1989-09-10|1989-10-06
10490|Senior Staff|1997-11-22|9999-01-01
10490|Staff|1992-11-22|1997-11-22
10491|Senior Staff|1998-01-17|9999-01-01
10491|Staff|1990-01-17|1998-01-17
10492|Engineer|1988-04-29|1997-04-29
10492|Senior Engineer|1997-04-29|9999-01-01
10493|Senior Staff|1998-10-29|9999-01-01
10494|Engineer|1991-12-18|2000-12-17
10494|Senior Engineer|2000-12-17|9999-01-01
10495|Technique Leader|1989-09-24|9999-01-01
10496|Staff|1995-08-29|1999-01-26
10497|Engineer|1992-01-22|1999-01-22
10497|Senior Engineer|1999-01-22|9999-01-01
10498|Engineer|1994-03-09|9999-01-01
10499|Senior Staff|2001-07-31|9999-01-01
10499|Staff|1996-07-31|2001-07-31
10500|Engineer|1996-12-16|9999-01-01
10501|Engineer|1988-09-08|1995-09-09
10501|Senior Engineer|1995-09-09|9999-01-01
10502|Technique Leader|1993-03-04|9999-01-01
10503|Engineer|1997-03-13|9999-01-01
10504|Staff|1999-10-19|9999-01-01
10505|Senior Staff|1994-07-23|1998-03-26
10505|Staff|1985-07-23|1994-07-23
10506|Senior Engineer|1996-12-01|9999-01-01
10507|Senior Staff|1999-09-30|9999-01-01
10507|Staff|1990-09-30|1999-09-30
10508|Engineer|1991-05-01|2000-04-30
10508|Senior Engineer|2000-04-30|9999-01-01
10509|Senior Staff|1997-10-06|9999-01-01
10509|Staff|1992-10-06|1997-10-06
10510|Senior Staff|1997-04-20|9999-01-01
10510|Staff|1990-04-20|1997-04-20
10511|Assistant Engineer|1992-01-27|2000-01-27
10511|Engineer|2000-01-27|9999-01-01
10512|Senior Staff|1998-11-28|9999-01-01
10512|Staff|1989-11-28|1998-11-28
10513|Senior Staff|1997-04-01|9999-01-01
10513|Staff|1991-04-02|1997-04-01
10514|Staff|1992-04-29|1995-04-02
10515|Senior Staff|1997-01-06|1998-07-21
10515|Staff|1990-01-06|1997-01-06
10516|Engineer|1985-10-19|1994-10-19
10516|Senior Engineer|1994-10-19|9999-01-01
10517|Senior Staff|1990-12-25|9999-01-01
10518|Technique Leader|1993-09-03|9999-01-01
10519|Senior Staff|2000-12-05|2001-10-13
10519|Staff|1992-12-05|2000-12-05
10520|Senior Engineer|1996-09-05|9999-01-01
10521|Senior Staff|1997-05-11|9999-01-01
10521|Staff|1989-05-11|1997-05-11
10522|Senior Staff|1995-12-12|9999-01-01
10522|Staff|1986-12-12|1995-12-12
10523|Engineer|1989-12-23|1994-12-23
10523|Senior Engineer|1994-12-23|9999-01-01
10524|Engineer|1985-10-09|1993-10-09
10524|Senior Engineer|1993-10-09|9999-01-01
10525|Senior Staff|1990-07-08|1995-12-20
10526|Engineer|1988-02-27|1997-02-26
10526|Senior Engineer|1997-02-26|9999-01-01
10527|Technique Leader|1996-01-25|9999-01-01
10528|Senior Engineer|1993-10-28|9999-01-01
10529|Assistant Engineer|1997-07-04|9999-01-01
10530|Engineer|1987-09-23|1994-09-23
10530|Senior Engineer|1994-09-23|9999-01-01
10531|Staff|1995-03-16|9999-01-01
10532|Senior Staff|1993-05-18|9999-01-01
10532|Staff|1986-05-18|1993-05-18
10533|Senior Staff|1996-08-16|9999-01-01
10533|Staff|1990-08-17|1996-08-16
10534|Staff|1998-01-26|2001-03-03
10535|Senior Staff|1996-08-21|9999-01-01
10535|Staff|1991-08-22|1996-08-21
10536|Senior Staff|1997-10-07|9999-01-01
10536|Staff|1988-10-07|1997-10-07
10537|Senior Staff|1996-09-25|9999-01-01
10538|Senior Engineer|1987-07-23|1998-12-13
10539|Senior Staff|1990-06-05|9999-01-01
10540|Engineer|1994-05-03|2002-05-03
10540|Senior Engineer|2002-05-03|9999-01-01
10541|Staff|1986-02-28|1986-10-01
10542|Senior Engineer|1992-02-07|9999-01-01
10543|Staff|1998-11-24|9999-01-01
10544|Senior Staff|1995-04-29|9999-01-01
10545|Engineer|1990-06-30|1996-06-29
10545|Senior Engineer|1996-06-29|9999-01-01
10546|Senior Staff|1998-04-14|9999-01-01
10546|Staff|1991-04-14|1998-04-14
10547|Technique Leader|1988-02-14|1989-06-19
10548|Senior Staff|1993-07-04|9999-01-01
10548|Staff|1986-07-04|1993-07-04
10549|Engineer|1996-10-11|2001-10-11
10549|Senior Engineer|2001-10-11|9999-01-01
10550|Engineer|1985-02-03|1994-02-03
10550|Senior Engineer|1994-02-03|9999-01-01
10551|Engineer|1988-08-06|1995-08-07
10551|Senior Engineer|1995-08-07|9999-01-01
10552|Senior Engineer|1998-08-31|9999-01-01
10553|Engineer|1990-07-22|1996-07-21
10553|Senior Engineer|1996-07-21|9999-01-01
10554|Engineer|1990-11-28|1995-11-28
10554|Senior Engineer|1995-11-28|9999-01-01
10555|Staff|1992-05-22|1993-01-19
10556|Senior Staff|1997-04-15|9999-01-01
10556|Staff|1992-04-15|1997-04-15
10557|Engineer|1992-09-18|2001-09-18
10557|Senior Engineer|2001-09-18|9999-01-01
10558|Senior Engineer|1992-04-22|9999-01-01
10559|Staff|1999-04-05|9999-01-01
10560|Engineer|1996-09-03|9999-01-01
10561|Senior Staff|1997-06-30|9999-01-01
10562|Engineer|1997-07-24|2002-07-24
10562|Senior Engineer|2002-07-24|9999-01-01
10563|Engineer|1992-09-29|1999-09-30
10563|Senior Engineer|1999-09-30|2002-01-01
10564|Engineer|1995-11-23|2000-11-22
10564|Senior Engineer|2000-11-22|9999-01-01
10565|Senior Engineer|1996-08-05|9999-01-01
10566|Engineer|1990-08-23|1997-10-26
10567|Senior Staff|1997-10-18|9999-01-01
10567|Staff|1992-10-18|1997-10-18
10568|Staff|1995-07-08|9999-01-01
10569|Senior Staff|1996-03-12|9999-01-01
10569|Staff|1987-03-13|1996-03-12
10570|Senior Staff|1995-06-16|2000-03-25
10570|Staff|1986-06-16|1995-06-16
10571|Assistant Engineer|1985-02-24|1991-02-24
10571|Engineer|1991-02-24|1997-02-23
10571|Senior Engineer|1997-02-23|9999-01-01
10572|Engineer|1988-02-16|1994-02-15
10572|Senior Engineer|1994-02-15|9999-01-01
10573|Staff|1999-08-20|9999-01-01
10574|Senior Staff|1999-11-15|9999-01-01
10575|Senior Engineer|1988-10-04|2000-11-22
10576|Senior Staff|1991-01-03|9999-01-01
10577|Senior Staff|2002-07-02|9999-01-01
10577|Staff|1993-07-02|2002-07-02
10578|Senior Engineer|1989-11-24|9999-01-01
10579|Senior Engineer|1991-06-02|9999-01-01
10580|Senior Staff|1997-03-01|9999-01-01
10580|Staff|1991-03-02|1997-03-01
10581|Engineer|1994-04-13|1999-04-13
10581|Senior Engineer|1999-04-13|9999-01-01
10582|Assistant Engineer|1995-11-06|9999-01-01
10583|Engineer|1985-02-14|1990-02-14
10583|Senior Engineer|1990-02-14|1998-05-29
10584|Engineer|1986-02-17|1993-02-17
10584|Senior Engineer|1993-02-17|9999-01-01
10585|Senior Engineer|1991-01-09|9999-01-01
10586|Engineer|1992-02-04|2000-02-04
10586|Senior Engineer|2000-02-04|9999-01-01
10587|Engineer|1991-11-20|1999-11-20
10587|Senior Engineer|1999-11-20|9999-01-01
10588|Engineer|1988-07-25|1993-07-25
10588|Senior Engineer|1993-07-25|9999-01-01
10589|Senior Staff|2002-01-26|9999-01-01
10589|Staff|1994-01-26|2002-01-26
10590|Senior Staff|1995-04-09|9999-01-01
10590|Staff|1986-04-09|1995-04-09
10591|Staff|1987-06-18|1988-09-20
10592|Staff|1993-09-27|9999-01-01
10593|Engineer|1990-09-12|1999-09-12
10593|Senior Engineer|1999-09-12|9999-01-01
10594|Engineer|1988-04-02|1996-04-02
10594|Senior Engineer|1996-04-02|9999-01-01
10595|Senior Engineer|1989-11-24|9999-01-01
10596|Senior Staff|2001-05-23|9999-01-01
10596|Staff|1996-05-23|2001-05-23
10597|Senior Staff|1995-04-01|9999-01-01
10597|Staff|1990-04-01|1995-04-01
10598|Senior Engineer|1998-06-22|2000-09-27
10599|Technique Leader|1991-11-17|9999-01-01
10600|Senior Staff|1997-04-27|9999-01-01
10600|Staff|1992-04-27|1997-04-27
10601|Staff|1999-07-24|2002-05-09
10602|Staff|1989-04-23|1993-11-06
10603|Staff|1995-07-20|9999-01-01
10604|Engineer|1990-04-07|1997-04-07
10604|Senior Engineer|1997-04-07|9999-01-01
10605|Engineer|1993-07-01|1998-07-01
10605|Senior Engineer|1998-07-01|9999-01-01
10606|Engineer|1987-05-02|1992-05-01
10606|Senior Engineer|1992-05-01|9999-01-01
10607|Engineer|1996-01-13|9999-01-01
10608|Senior Engineer|1986-05-25|1991-06-02
10609|Assistant Engineer|1994-12-03|1999-12-03
10609|Engineer|1999-12-03|9999-01-01
10610|Engineer|1997-03-30|9999-01-01
10611|Senior Engineer|1989-09-16|9999-01-01
10612|Assistant Engineer|1991-09-02|1996-09-01
10612|Engineer|1996-09-01|2001-09-01
10612|Senior Engineer|2001-09-01|9999-01-01
10613|Staff|1997-10-13|9999-01-01
10614|Engineer|1990-03-03|1998-03-03
10614|Senior Engineer|1998-03-03|9999-01-01
10615|Senior Staff|2002-03-10|9999-01-01
10615|Staff|1996-03-10|2002-03-10
10616|Staff|1996-11-07|9999-01-01
10617|Senior Staff|1991-10-30|2001-10-03
10618|Engineer|1994-10-07|9999-01-01
10619|Senior Staff|1993-04-09|9999-01-01
10620|Assistant Engineer|1990-11-10|1999-11-10
10620|Engineer|1999-11-10|9999-01-01
10621|Engineer|1992-02-10|1999-02-10
10621|Senior Engineer|1999-02-10|9999-01-01
10622|Engineer|1989-05-15|1996-05-15
10622|Senior Engineer|1996-05-15|9999-01-01
10623|Engineer|1992-01-15|1999-01-15
10623|Senior Engineer|1999-01-15|9999-01-01
10624|Technique Leader|1990-05-07|9999-01-01
10625|Engineer|1986-07-15|1991-07-15
10625|Senior Engineer|1991-07-15|1995-01-13
10626|Staff|1996-12-03|9999-01-01
10627|Senior Staff|2001-03-12|9999-01-01
10627|Staff|1995-03-13|2001-03-12
10628|Assistant Engineer|1987-03-14|1994-03-14
10628|Engineer|1994-03-14|2001-03-14
10628|Senior Engineer|2001-03-14|9999-01-01
10629|Staff|1999-10-20|2001-12-07
10630|Engineer|1997-01-13|9999-01-01
10631|Engineer|1994-10-18|9999-01-01
10632|Technique Leader|1985-07-25|1987-11-20
10633|Staff|1997-05-16|9999-01-01
10634|Assistant Engineer|1990-11-11|1995-11-11
10634|Engineer|1995-11-11|2000-11-10
10634|Senior Engineer|2000-11-10|9999-01-01
10635|Senior Engineer|1991-09-22|1999-12-20
10636|Staff|1996-09-25|9999-01-01
10637|Senior Staff|1998-07-11|2000-01-19
10637|Staff|1993-07-11|1998-07-11
10638|Senior Staff|2000-11-09|9999-01-01
10638|Staff|1994-11-10|2000-11-09
10639|Engineer|1992-10-25|1999-10-26
10639|Senior Engineer|1999-10-26|9999-01-01
10640|Senior Staff|1992-12-04|9999-01-01
10641|Assistant Engineer|1993-03-21|1999-03-21
10641|Engineer|1999-03-21|9999-01-01
10642|Engineer|1998-10-05|9999-01-01
10643|Engineer|1987-11-11|1994-11-11
10643|Senior Engineer|1994-11-11|9999-01-01
10644|Senior Staff|1994-05-29|1995-08-25
10644|Staff|1985-05-29|1994-05-29
10645|Engineer|1988-03-01|1995-03-02
10645|Senior Engineer|1995-03-02|9999-01-01
10646|Senior Staff|2002-01-30|9999-01-01
10646|Staff|1996-01-31|2002-01-30
10647|Assistant Engineer|1997-09-03|9999-01-01
10648|Engineer|1988-02-16|1993-02-15
10648|Senior Engineer|1993-02-15|9999-01-01
10649|Senior Staff|1998-06-23|9999-01-01
10650|Assistant Engineer|1992-10-04|2000-10-04
10650|Engineer|2000-10-04|9999-01-01
10651|Senior Staff|2002-01-07|9999-01-01
10651|Staff|1996-01-08|2002-01-07
10652|Staff|1990-02-12|1992-01-13
10653|Senior Engineer|1987-04-30|9999-01-01
10654|Engineer|1990-03-25|1999-03-25
10654|Senior Engineer|1999-03-25|9999-01-01
10655|Senior Staff|1997-07-04|9999-01-01
10656|Engineer|1988-06-21|1993-06-21
10656|Senior Engineer|1993-06-21|9999-01-01
10657|Senior Staff|1999-03-27|9999-01-01
10657|Staff|1992-03-26|1999-03-27
10658|Senior Staff|1994-04-29|9999-01-01
10659|Engineer|1995-06-01|2000-05-31
10659|Senior Engineer|2000-05-31|9999-01-01
10660|Senior Engineer|1988-08-12|1991-07-12
10661|Senior Staff|1993-01-11|9999-01-01
10661|Staff|1988-01-12|1993-01-11
10662|Engineer|1999-12-17|9999-01-01
10663|Technique Leader|1993-01-23|9999-01-01
10664|Engineer|1989-12-24|1998-12-24
10664|Senior Engineer|1998-12-24|9999-01-01
10665|Engineer|1988-01-23|1995-01-23
10665|Senior Engineer|1995-01-23|2000-07-13
10666|Senior Staff|1998-05-20|9999-01-01
10666|Staff|1989-05-20|1998-05-20
10667|Senior Staff|1999-07-28|9999-01-01
10668|Staff|1997-11-28|1999-09-03
10669|Senior Staff|2001-11-17|9999-01-01
10669|Staff|1996-11-17|2001-11-17
10670|Senior Staff|1993-03-23|9999-01-01
10670|Staff|1988-03-23|1993-03-23
10671|Senior Staff|2001-09-13|9999-01-01
10671|Staff|1995-09-14|2001-09-13
10672|Senior Engineer|1991-09-29|1996-04-19
10673|Engineer|1994-07-29|1998-01-14
10674|Engineer|1999-03-17|9999-01-01
10675|Senior Staff|1993-02-02|9999-01-01
10676|Engineer|1999-09-04|9999-01-01
10677|Engineer|1999-10-13|9999-01-01
10678|Engineer|1987-08-02|1995-08-02
10678|Senior Engineer|1995-08-02|9999-01-01
10679|Senior Staff|1997-05-13|9999-01-01
10679|Staff|1990-05-13|1997-05-13
10680|Senior Engineer|1992-11-21|1998-12-08
10681|Staff|1995-10-02|9999-01-01
10682|Senior Staff|1990-11-09|9999-01-01
10683|Senior Engineer|1997-06-23|9999-01-01
10684|Engineer|1999-10-28|9999-01-01
10685|Senior Staff|1995-12-27|1996-10-20
10686|Senior Engineer|1987-05-17|9999-01-01
10687|Senior Staff|1999-03-13|9999-01-01
10687|Staff|1990-03-13|1999-03-13
10688|Senior Staff|1986-04-13|9999-01-01
10689|Senior Staff|1993-08-05|9999-01-01
10689|Staff|1988-08-05|1993-08-05
10690|Engineer|1989-08-22|1994-08-22
10690|Senior Engineer|1994-08-22|9999-01-01
10691|Technique Leader|1989-09-17|9999-01-01
10692|Senior Staff|2000-03-22|9999-01-01
10692|Staff|1993-03-22|2000-03-22
10693|Senior Staff|1991-01-08|9999-01-01
10693|Staff|1986-01-08|1991-01-08
10694|Senior Staff|1993-01-25|2001-07-11
10694|Staff|1988-01-26|1993-01-25
10695|Engineer|1998-05-19|9999-01-01
10696|Technique Leader|1991-09-09|9999-01-01
10697|Staff|1999-08-29|9999-01-01
10698|Senior Engineer|1994-12-08|9999-01-01
10699|Engineer|1985-11-17|1993-11-17
10699|Senior Engineer|1993-11-17|9999-01-01
10700|Engineer|1998-04-14|2002-06-27
10701|Senior Staff|1994-10-27|9999-01-01
10701|Staff|1986-10-27|1994-10-27
10702|Senior Engineer|1991-01-14|9999-01-01
10703|Engineer|1996-05-12|2002-05-12
10703|Senior Engineer|2002-05-12|9999-01-01
10704|Senior Staff|2001-02-16|9999-01-01
10704|Staff|1995-02-17|2001-02-16
10705|Senior Staff|1996-07-17|9999-01-01
10705|Staff|1990-07-18|1996-07-17
10706|Technique Leader|1994-05-03|2001-04-08
10707|Engineer|1990-12-24|1997-12-24
10707|Senior Engineer|1997-12-24|9999-01-01
10708|Staff|1999-11-09|9999-01-01
10709|Engineer|1986-02-02|1992-02-02
10709|Senior Engineer|1992-02-02|9999-01-01
10710|Senior Staff|2000-07-08|9999-01-01
10710|Staff|1995-07-09|2000-07-08
10711|Engineer|1991-06-21|1996-06-20
10711|Senior Engineer|1996-06-20|9999-01-01
10712|Engineer|1994-08-18|2001-08-18
10712|Senior Engineer|2001-08-18|9999-01-01
10713|Senior Staff|1986-04-26|2001-02-21
10714|Engineer|1999-11-24|9999-01-01
10715|Engineer|1999-10-28|9999-01-01
10716|Engineer|1987-08-12|1993-08-11
10716|Senior Engineer|1993-08-11|9999-01-01
10717|Senior Staff|1996-09-12|9999-01-01
10717|Staff|1991-09-13|1996-09-12
10718|Engineer|1988-07-21|1997-07-21
10718|Senior Engineer|1997-07-21|9999-01-01
10719|Assistant Engineer|1995-09-05|1999-07-31
10720|Senior Staff|1996-06-26|9999-01-01
10721|Staff|1999-07-15|9999-01-01
10722|Senior Staff|1994-01-17|2000-04-14
10722|Staff|1989-01-17|1994-01-17
10723|Technique Leader|1997-07-14|9999-01-01
10724|Engineer|1995-12-07|2001-12-06
10724|Senior Engineer|2001-12-06|9999-01-01
10725|Senior Staff|1990-09-08|9999-01-01
10726|Engineer|1992-02-25|2001-02-24
10726|Senior Engineer|2001-02-24|9999-01-01
10727|Senior Staff|1998-01-08|2000-06-06
10727|Staff|1991-01-08|1998-01-08
10728|Engineer|1989-12-09|1998-12-09
10728|Senior Engineer|1998-12-09|9999-01-01
10729|Senior Engineer|1986-04-20|9999-01-01
10730|Senior Engineer|1996-05-14|1998-06-07
10731|Senior Staff|1994-02-20|2000-10-09
10731|Staff|1987-02-20|1994-02-20
10732|Senior Engineer|1994-12-21|9999-01-01
10733|Senior Staff|2002-02-19|9999-01-01
10733|Staff|1996-02-20|2002-02-19
10734|Engineer|1995-12-19|9999-01-01
10735|Senior Staff|1993-10-29|9999-01-01
10735|Staff|1985-10-29|1993-10-29
10736|Senior Engineer|1991-09-26|9999-01-01
10737|Engineer|1999-06-22|9999-01-01
10738|Technique Leader|1991-04-30|9999-01-01
10739|Assistant Engineer|1985-03-30|1994-03-30
10739|Engineer|1994-03-30|9999-01-01
10740|Engineer|1996-04-30|2002-03-17
10741|Senior Staff|1997-01-06|9999-01-01
10741|Staff|1989-01-06|1997-01-06
10742|Technique Leader|1997-04-03|9999-01-01
10743|Staff|1999-11-05|9999-01-01
10744|Staff|1985-12-29|1992-06-03
10745|Engineer|1988-01-23|1997-01-22
10745|Senior Engineer|1997-01-22|9999-01-01
10746|Technique Leader|1990-08-31|9999-01-01
10747|Senior Engineer|1990-10-08|1999-09-20
10748|Senior Staff|1996-08-13|9999-01-01
10748|Staff|1990-08-14|1996-08-13
10749|Engineer|1985-09-26|1990-09-26
10749|Senior Engineer|1990-09-26|9999-01-01
10750|Technique Leader|1998-11-06|9999-01-01
10751|Engineer|1999-12-14|2000-12-05
10752|Senior Engineer|1993-05-28|9999-01-01
10753|Engineer|1985-05-17|1993-05-17
10753|Senior Engineer|1993-05-17|1999-08-25
10754|Senior Staff|1988-01-11|9999-01-01
10755|Assistant Engineer|1995-04-01|2001-11-13
10756|Senior Engineer|1997-10-07|9999-01-01
10757|Engineer|1986-01-06|1991-10-18
10758|Engineer|1999-07-01|9999-01-01
10759|Technique Leader|1991-12-04|9999-01-01
10760|Senior Staff|1997-08-22|9999-01-01
10761|Staff|1992-05-30|1999-01-04
10762|Senior Staff|1999-01-21|9999-01-01
10762|Staff|1992-01-21|1999-01-21
10763|Engineer|1987-02-23|1993-02-22
10763|Senior Engineer|1993-02-22|9999-01-01
10764|Engineer|1989-11-27|1998-11-27
10764|Senior Engineer|1998-11-27|9999-01-01
10765|Staff|1994-05-07|1994-05-11
10766|Staff|1999-09-18|9999-01-01
10767|Staff|1997-07-15|9999-01-01
10768|Engineer|1985-07-04|1990-07-04
10768|Senior Engineer|1990-07-04|9999-01-01
10769|Technique Leader|1991-08-30|9999-01-01
10770|Senior Staff|1987-12-25|1989-02-27
10771|Senior Staff|1996-04-01|9999-01-01
10772|Senior Engineer|1990-02-22|9999-01-01
10773|Staff|1997-02-09|1997-11-29
10774|Engineer|1990-01-26|1995-01-26
10774|Senior Engineer|1995-01-26|9999-01-01
10775|Engineer|1994-12-30|1999-12-30
10775|Senior Engineer|1999-12-30|9999-01-01
10776|Technique Leader|1986-03-16|9999-01-01
10777|Engineer|1990-03-17|1996-03-16
10777|Senior Engineer|1996-03-16|2001-03-27
10778|Senior Staff|1986-07-04|9999-01-01
10779|Senior Staff|1993-01-10|9999-01-01
10779|Staff|1988-01-11|1993-01-10
10780|Engineer|1994-08-01|1996-08-18
10781|Senior Staff|1997-02-03|9999-01-01
10781|Staff|1991-02-04|1997-02-03
10782|Staff|1997-07-06|2002-03-30
10783|Senior Staff|1999-05-15|9999-01-01
10783|Staff|1994-05-15|1999-05-15
10784|Assistant Engineer|1998-10-14|9999-01-01
10785|Engineer|1994-11-11|2001-11-11
10785|Senior Engineer|2001-11-11|9999-01-01
10786|Senior Engineer|1997-06-06|9999-01-01
10787|Senior Staff|2000-07-18|2002-07-27
10787|Staff|1991-07-19|2000-07-18
10788|Staff|1998-05-29|9999-01-01
10789|Staff|1998-01-26|9999-01-01
10790|Engineer|1999-03-02|9999-01-01
10791|Engineer|1988-07-30|1995-07-31
10791|Senior Engineer|1995-07-31|9999-01-01
10792|Engineer|1985-08-10|1992-08-10
10792|Senior Engineer|1992-08-10|1993-12-20
10793|Senior Engineer|1990-09-18|9999-01-01
10794|Senior Staff|2000-05-23|9999-01-01
10794|Staff|1994-05-24|2000-05-23
10795|Senior Staff|1999-05-03|9999-01-01
10795|Staff|1993-05-03|1999-05-03
10796|Technique Leader|1990-11-08|9999-01-01
10797|Assistant Engineer|1988-08-21|1997-08-21
10797|Engineer|1997-08-21|9999-01-01
10798|Engineer|1996-09-21|2001-09-21
10798|Senior Engineer|2001-09-21|9999-01-01
10799|Engineer|1989-03-01|1995-03-01
10799|Senior Engineer|1995-03-01|9999-01-01
10800|Engineer|1993-05-20|1998-05-20
10800|Senior Engineer|1998-05-20|9999-01-01
10801|Engineer|1998-04-07|2001-01-15
10802|Engineer|1985-08-24|1990-08-24
10802|Senior Engineer|1990-08-24|9999-01-01
10803|Engineer|1988-04-20|1997-04-20
10803|Senior Engineer|1997-04-20|2002-04-02
10804|Staff|1997-06-09|9999-01-01
10805|Senior Staff|1996-05-25|9999-01-01
10805|Staff|1987-05-26|1996-05-25
10806|Senior Staff|2000-04-25|9999-01-01
10806|Staff|1993-04-25|2000-04-25
10807|Senior Staff|1999-10-19|9999-01-01
10808|Senior Engineer|1987-03-07|9999-01-01
10809|Engineer|1988-02-25|1994-02-24
10809|Senior Engineer|1994-02-24|9999-01-01
10810|Senior Staff|2000-09-06|9999-01-01
10810|Staff|1994-09-07|2000-09-06
10811|Engineer|1997-07-08|9999-01-01
10812|Engineer|1996-09-20|1997-10-06
10813|Senior Staff|1990-04-27|9999-01-01
10814|Senior Staff|1998-07-17|9999-01-01
10814|Staff|1993-07-17|1998-07-17
10815|Senior Staff|2002-04-19|9999-01-01
10815|Staff|1994-04-19|2002-04-19
10816|Senior Staff|1991-05-22|9999-01-01
10817|Senior Staff|1998-12-26|9999-01-01
10817|Staff|1990-12-26|1998-12-26
10818|Staff|1998-04-09|9999-01-01
10819|Engineer|1986-08-02|1993-08-02
10819|Senior Engineer|1993-08-02|1999-12-28
10820|Senior Staff|1992-06-26|9999-01-01
10821|Engineer|1988-10-06|1990-04-17
10822|Engineer|1986-01-11|1992-01-11
10822|Senior Engineer|1992-01-11|9999-01-01
10823|Staff|1999-08-19|9999-01-01
10824|Staff|1995-08-01|9999-01-01
10825|Engineer|1993-12-04|1998-12-04
10825|Senior Engineer|1998-12-04|9999-01-01
10826|Senior Engineer|1993-01-22|9999-01-01
10827|Staff|1996-11-07|9999-01-01
10828|Staff|1986-02-14|1990-03-30
10829|Staff|1993-07-21|1993-11-29
10830|Senior Staff|1997-08-23|9999-01-01
10830|Staff|1991-08-24|1997-08-23
10831|Technique Leader|1998-02-22|9999-01-01
10832|Senior Staff|1992-10-10|9999-01-01
10832|Staff|1986-10-11|1992-10-10
10833|Technique Leader|1998-12-23|9999-01-01
10834|Assistant Engineer|1990-11-24|1999-11-24
10834|Engineer|1999-11-24|9999-01-01
10835|Engineer|1995-08-22|9999-01-01
10836|Senior Staff|1987-08-10|9999-01-01
10837|Senior Staff|1993-01-14|2002-02-22
10837|Staff|1986-01-14|1993-01-14
10838|Engineer|1994-04-26|2001-04-26
10838|Senior Engineer|2001-04-26|9999-01-01
10839|Assistant Engineer|1996-12-30|9999-01-01
10840|Engineer|1993-06-04|1998-06-04
10840|Senior Engineer|1998-06-04|9999-01-01
10841|Senior Staff|1997-01-21|9999-01-01
10841|Staff|1992-01-22|1997-01-21
10842|Engineer|1986-07-14|1991-07-14
10842|Senior Engineer|1991-07-14|1998-06-27
10843|Engineer|1990-04-26|1998-04-26
10843|Senior Engineer|1998-04-26|9999-01-01
10844|Engineer|1997-04-25|9999-01-01
10845|Engineer|1997-01-25|2002-01-25
10845|Senior Engineer|2002-01-25|9999-01-01
10846|Senior Engineer|1995-01-17|9999-01-01
10847|Senior Staff|1992-07-24|9999-01-01
10847|Staff|1986-07-25|1992-07-24
10848|Engineer|1985-04-20|1992-04-20
10848|Senior Engineer|1992-04-20|9999-01-01
10849|Assistant Engineer|1995-06-25|2001-06-24
10849|Engineer|2001-06-24|9999-01-01
10850|Staff|1990-04-22|1995-05-11
10851|Senior Staff|1999-11-21|9999-01-01
10851|Staff|1994-11-21|1999-11-21
10852|Technique Leader|1999-08-21|9999-01-01
10853|Technique Leader|1993-05-03|9999-01-01
10854|Engineer|1998-07-13|9999-01-01
10855|Senior Staff|1993-03-29|9999-01-01
10856|Staff|1986-12-31|1990-06-18
10857|Senior Staff|1996-04-02|9999-01-01
10857|Staff|1990-04-04|1996-04-02
10858|Engineer|1997-01-01|2002-01-01
10858|Senior Engineer|2002-01-01|9999-01-01
10859|Staff|1996-05-21|9999-01-01
10860|Technique Leader|1998-01-22|9999-01-01
10861|Senior Engineer|1989-06-10|1992-04-12
10862|Senior Staff|1992-07-23|9999-01-01
10862|Staff|1985-07-23|1992-07-23
10863|Engineer|1985-12-25|1991-12-25
10863|Senior Engineer|1991-12-25|9999-01-01
10864|Senior Staff|1992-09-24|9999-01-01
10864|Staff|1986-09-25|1992-09-24
10865|Staff|1993-05-29|1993-09-19
10866|Senior Staff|1995-12-27|9999-01-01
10866|Staff|1990-12-27|1995-12-27
10867|Engineer|1997-03-23|2002-03-22
10868|Engineer|1990-03-20|1999-03-20
10868|Senior Engineer|1999-03-20|9999-01-01
10869|Staff|1997-09-04|1998-10-15
10870|Senior Engineer|1988-01-13|9999-01-01
10871|Staff|1999-06-16|9999-01-01
10872|Senior Staff|1996-09-05|9999-01-01
10872|Staff|1990-09-06|1996-09-05
10873|Staff|1994-03-23|9999-01-01
10874|Engineer|1986-04-22|1992-04-21
10874|Senior Engineer|1992-04-21|9999-01-01
10875|Senior Engineer|1988-05-19|9999-01-01
10876|Staff|1995-01-29|1999-09-14
10877|Senior Staff|1986-06-06|9999-01-01
10878|Staff|1997-04-25|9999-01-01
10879|Senior Engineer|1985-08-15|9999-01-01
10880|Engineer|1992-01-11|1997-01-10
10880|Senior Engineer|1997-01-10|9999-01-01
10881|Engineer|1997-02-18|1998-10-25
10882|Engineer|1999-04-29|9999-01-01
10883|Engineer|1996-12-28|9999-01-01
10884|Engineer|1993-04-15|1998-04-15
10884|Senior Engineer|1998-04-15|9999-01-01
10885|Senior Staff|1991-08-19|9999-01-01
10886|Engineer|1995-03-26|2000-03-25
10886|Senior Engineer|2000-03-25|9999-01-01
10887|Senior Engineer|1989-03-17|9999-01-01
10888|Engineer|1987-06-28|1989-09-11
10889|Senior Staff|1987-08-11|9999-01-01
10890|Senior Staff|1990-03-10|9999-01-01
10891|Assistant Engineer|1995-10-06|2001-10-05
10891|Engineer|2001-10-05|9999-01-01
10892|Senior Staff|1998-04-11|9999-01-01
10892|Staff|1990-04-11|1998-04-11
10893|Senior Staff|1995-08-23|9999-01-01
10893|Staff|1989-08-23|1995-08-23
10894|Engineer|1995-12-05|9999-01-01
10895|Staff|1986-04-26|1987-04-13
10896|Engineer|1997-11-27|9999-01-01
10897|Senior Staff|1995-04-09|9999-01-01
10897|Staff|1986-04-09|1995-04-09
10898|Senior Engineer|1993-01-08|9999-01-01
10899|Senior Staff|1999-04-05|9999-01-01
10899|Staff|1990-04-05|1999-04-05
10900|Senior Engineer|1995-09-07|9999-01-01
10901|Staff|1998-08-05|9999-01-01
10902|Assistant Engineer|1990-06-11|1990-09-25
10903|Senior Staff|1997-02-14|9999-01-01
10903|Staff|1989-02-14|1997-02-14
10904|Engineer|1993-04-16|1999-04-16
10904|Senior Engineer|1999-04-16|9999-01-01
10905|Senior Engineer|1985-02-28|1986-03-07
10906|Staff|1998-10-18|9999-01-01
10907|Senior Staff|1995-12-26|9999-01-01
10907|Staff|1988-12-25|1995-12-26
10908|Senior Staff|1993-04-05|9999-01-01
10908|Staff|1986-04-05|1993-04-05
10909|Engineer|1993-12-26|2000-12-26
10909|Senior Engineer|2000-12-26|9999-01-01
10910|Senior Staff|1995-09-02|9999-01-01
10910|Staff|1989-09-02|1995-09-02
10911|Senior Engineer|1988-06-25|9999-01-01
10912|Senior Staff|1991-04-23|1999-09-26
10912|Staff|1986-04-23|1991-04-23
10913|Staff|1998-10-25|9999-01-01
10914|Staff|1998-03-24|1998-09-01
10915|Senior Engineer|1999-10-28|9999-01-01
10916|Engineer|1998-03-12|9999-01-01
10917|Engineer|1993-01-30|1998-01-30
10917|Senior Engineer|1998-01-30|9999-01-01
10918|Staff|1990-01-29|1990-10-10
10919|Staff|1999-10-30|9999-01-01
10920|Senior Staff|1998-02-23|9999-01-01
10920|Staff|1992-02-24|1998-02-23
10921|Engineer|1986-07-27|1995-07-27
10921|Senior Engineer|1995-07-27|9999-01-01
10922|Staff|1996-02-02|1999-01-16
10923|Senior Staff|1990-04-09|9999-01-01
10924|Senior Staff|1997-08-14|9999-01-01
10924|Staff|1988-08-14|1997-08-14
10925|Technique Leader|1991-06-11|9999-01-01
10926|Engineer|1990-04-30|1995-04-30
10926|Senior Engineer|1995-04-30|9999-01-01
10927|Senior Staff|1993-09-12|9999-01-01
10927|Staff|1986-09-12|1993-09-12
10928|Senior Staff|1997-04-06|9999-01-01
10928|Staff|1991-04-07|1997-04-06
10929|Senior Staff|1998-04-15|9999-01-01
10929|Staff|1991-04-15|1998-04-15
10930|Engineer|1991-11-22|1998-11-22
10930|Senior Engineer|1998-11-22|9999-01-01
10931|Technique Leader|1992-06-14|1999-09-19
10932|Engineer|1994-09-09|1999-09-09
10932|Senior Engineer|1999-09-09|9999-01-01
10933|Senior Engineer|1993-08-02|9999-01-01
10934|Staff|1995-09-17|9999-01-01
10935|Staff|1994-10-17|9999-01-01
10936|Senior Staff|1996-05-08|9999-01-01
10936|Staff|1990-05-09|1996-05-08
10937|Engineer|1988-06-16|1994-06-16
10937|Senior Engineer|1994-06-16|9999-01-01
10938|Senior Staff|1993-09-24|9999-01-01
10938|Staff|1985-09-24|1993-09-24
10939|Assistant Engineer|1997-12-11|9999-01-01
10940|Engineer|1997-06-30|1999-12-02
10941|Senior Staff|2001-08-22|9999-01-01
10941|Staff|1993-08-22|2001-08-22
10942|Engineer|1996-01-21|9999-01-01
10943|Engineer|1993-05-22|1999-05-22
10943|Senior Engineer|1999-05-22|9999-01-01
10944|Senior Engineer|1995-09-07|9999-01-01
10945|Engineer|1993-04-04|2001-04-04
10945|Senior Engineer|2001-04-04|9999-01-01
10946|Staff|1996-10-26|9999-01-01
10947|Senior Staff|2001-11-15|9999-01-01
10947|Staff|1995-11-16|2001-11-15
10948|Senior Engineer|1996-09-30|1997-06-23
10949|Senior Staff|1996-06-28|9999-01-01
10949|Staff|1990-06-29|1996-06-28
10950|Senior Engineer|1996-06-08|1998-01-13
10951|Senior Staff|1994-07-06|9999-01-01
10951|Staff|1989-07-06|1994-07-06
10952|Senior Engineer|1986-07-22|1988-04-26
10953|Senior Staff|1987-02-12|9999-01-01
10954|Staff|1995-12-14|9999-01-01
10955|Senior Staff|1991-09-27|9999-01-01
10955|Staff|1986-09-27|1991-09-27
10956|Engineer|1995-12-02|9999-01-01
10957|Senior Staff|1990-10-01|9999-01-01
10958|Engineer|1988-11-27|1993-11-27
10958|Senior Engineer|1993-11-27|9999-01-01
10959|Staff|1994-03-01|1996-04-12
10960|Senior Staff|1995-07-07|9999-01-01
10961|Engineer|1993-11-04|1999-11-04
10961|Senior Engineer|1999-11-04|9999-01-01
10962|Senior Staff|1986-12-16|9999-01-01
10963|Engineer|1988-01-14|1995-04-10
10964|Senior Staff|1999-05-05|9999-01-01
10964|Staff|1991-05-05|1999-05-05
10965|Senior Staff|1986-07-29|9999-01-01
10966|Staff|1997-02-05|9999-01-01
10967|Engineer|1993-08-01|1998-08-01
10967|Senior Engineer|1998-08-01|9999-01-01
10968|Senior Staff|1985-08-11|9999-01-01
10969|Senior Engineer|1994-05-12|9999-01-01
10970|Engineer|1995-11-14|9999-01-01
10971|Technique Leader|1991-07-30|1998-10-24
10972|Engineer|1987-06-06|1996-06-05
10972|Senior Engineer|1996-06-05|9999-01-01
10973|Engineer|1989-03-05|1995-03-05
10973|Senior Engineer|1995-03-05|9999-01-01
10974|Senior Engineer|1999-05-17|9999-01-01
10975|Engineer|1992-03-30|1998-03-30
10975|Senior Engineer|1998-03-30|9999-01-01
10976|Technique Leader|1998-10-31|9999-01-01
10977|Senior Staff|1987-08-10|1987-10-01
10978|Engineer|1985-05-18|1990-05-18
10978|Senior Engineer|1990-05-18|9999-01-01
10979|Engineer|1986-01-27|1993-01-27
10979|Senior Engineer|1993-01-27|9999-01-01
10980|Engineer|1989-01-04|1997-01-04
10980|Senior Engineer|1997-01-04|9999-01-01
10981|Senior Staff|1992-07-07|9999-01-01
10982|Senior Staff|1994-11-11|9999-01-01
10982|Staff|1989-11-11|1994-11-11
10983|Engineer|1988-02-22|1997-02-21
10983|Senior Engineer|1997-02-21|9999-01-01
10984|Senior Engineer|1988-07-09|1993-05-14
10985|Engineer|1999-02-11|1999-03-10
10986|Technique Leader|1985-10-11|9999-01-01
10987|Engineer|1997-05-21|9999-01-01
10988|Senior Engineer|1985-06-19|9999-01-01
10989|Senior Staff|1991-07-20|9999-01-01
10989|Staff|1985-07-20|1991-07-20
10990|Technique Leader|1990-08-06|9999-01-01
10991|Engineer|1999-07-13|9999-01-01
10992|Engineer|1997-04-27|9999-01-01
10993|Engineer|1992-05-29|2000-05-29
10993|Senior Engineer|2000-05-29|9999-01-01
10994|Assistant Engineer|1987-06-29|1989-05-24
10995|Senior Staff|1997-07-19|9999-01-01
10996|Senior Staff|1996-02-07|9999-01-01
10996|Staff|1990-02-07|1996-02-07
10997|Technique Leader|2000-01-04|9999-01-01
10998|Staff|1996-08-07|9999-01-01
10999|Technique Leader|1996-03-05|1997-04-19
11000|Senior Engineer|1996-01-28|9999-01-01
11001|Manager|1985-01-01|1991-10-01
11001|Senior Staff|1991-10-01|9999-01-01
11002|Manager|1991-10-01|9999-01-01
11002|Senior Staff|1986-04-12|1991-10-01
11003|Manager|1985-01-01|1989-12-17
11003|Senior Staff|1989-12-17|9999-01-01
11004|Manager|1989-12-17|9999-01-01
11004|Senior Staff|1985-01-14|1989-12-17
11005|Manager|1985-01-01|1992-03-21
11005|Staff|1992-03-21|9999-01-01
11006|Manager|1992-03-21|9999-01-01
11006|Senior Staff|1985-08-04|1992-03-21
11007|Manager|1985-01-01|1988-09-09
11007|Technique Leader|1988-09-09|9999-01-01
11008|Manager|1988-09-09|1992-08-02
11008|Senior Engineer|1985-11-22|1988-09-09
11008|Technique Leader|1992-08-02|9999-01-01
11009|Manager|1992-08-02|1996-08-30
11009|Technique Leader|1988-10-14|1992-08-02
11009|Technique Leader|1996-08-30|9999-01-01
11010|Manager|1996-08-30|9999-01-01
11010|Senior Engineer|1992-02-05|1996-08-30
11011|Manager|1985-01-01|1992-04-25
11011|Technique Leader|1992-04-25|9999-01-01
11012|Manager|1992-04-25|9999-01-01
11012|Technique Leader|1986-10-21|1992-04-25
11013|Manager|1985-01-01|1989-05-06
11013|Technique Leader|1989-05-06|9999-01-01
11014|Manager|1989-05-06|1991-09-12
11014|Technique Leader|1989-01-07|1989-05-06
11014|Technique Leader|1991-09-12|9999-01-01
11015|Manager|1991-09-12|1994-06-28
11015|Senior Engineer|1986-08-12|1991-09-12
11015|Technique Leader|1994-06-28|9999-01-01
11016|Manager|1994-06-28|9999-01-01
11016|Technique Leader|1989-06-09|1994-06-28
11017|Manager|1985-01-01|1991-03-07
11017|Staff|1991-03-07|9999-01-01
11018|Manager|1991-03-07|9999-01-01
11018|Staff|1986-12-30|1991-03-07
11019|Manager|1985-01-01|1991-04-08
11019|Staff|1991-04-08|9999-01-01
11020|Manager|1991-04-08|9999-01-01
11020|Senior Staff|1988-01-31|1991-04-08
11021|Manager|1985-01-01|1988-10-17
11021|Staff|1988-10-17|9999-01-01
11022|Manager|1988-10-17|1992-09-08
11022|Senior Staff|1988-02-12|1988-10-17
11022|Staff|1992-09-08|9999-01-01
11023|Manager|1992-09-08|1996-01-03
11023|Senior Staff|1991-08-17|1992-09-08
11023|Staff|1996-01-03|9999-01-01
11024|Manager|1996-01-03|9999-01-01
11024|Senior Staff|1989-07-10|1996-01-03
